{
	"info": {
		"_postman_id": "7d534e23-f850-420c-bda6-6ff273b18664",
		"name": "DemoRestApi",
		"schema": "https://schema.getpostman.com/json/collection/v2.1.0/collection.json",
		"_exporter_id": "21310160"
	},
	"item": [
		{
			"name": "Multiple User Get Requests",
			"event": [
				{
					"listen": "test",
					"script": {
						"exec": [
							"// Status Code is 200 means successful or not \r",
							"tests[\"Validating Status Code\"] = responseCode.code == 200;\r",
							"// Body has something or not in whole response\r",
							"tests[\"Validating Response Body\"] = responseBody.has(\"data\");\r",
							"// the whole response stored in the response variable\r",
							"var response = JSON.parse(responseBody);\r",
							"tests[\"page no\"] = response.page == 2;\r",
							"// tests[\"page no\"] = response.page == 5;"
						],
						"type": "text/javascript"
					}
				}
			],
			"request": {
				"method": "GET",
				"header": [],
				"url": {
					"raw": "https://reqres.in/api/users?page=2",
					"protocol": "https",
					"host": [
						"reqres",
						"in"
					],
					"path": [
						"api",
						"users"
					],
					"query": [
						{
							"key": "page",
							"value": "2"
						}
					]
				}
			},
			"response": [
				{
					"name": "Request1",
					"originalRequest": {
						"method": "GET",
						"header": [],
						"url": {
							"raw": "https://reqres.in/api/users?page=2",
							"protocol": "https",
							"host": [
								"reqres",
								"in"
							],
							"path": [
								"api",
								"users"
							],
							"query": [
								{
									"key": "page",
									"value": "2"
								}
							]
						}
					},
					"status": "OK",
					"code": 200,
					"_postman_previewlanguage": "json",
					"header": [
						{
							"key": "Date",
							"value": "Tue, 29 Nov 2022 02:29:24 GMT"
						},
						{
							"key": "Content-Type",
							"value": "application/json; charset=utf-8"
						},
						{
							"key": "Transfer-Encoding",
							"value": "chunked"
						},
						{
							"key": "Connection",
							"value": "keep-alive"
						},
						{
							"key": "X-Powered-By",
							"value": "Express"
						},
						{
							"key": "Access-Control-Allow-Origin",
							"value": "*"
						},
						{
							"key": "Etag",
							"value": "W/\"406-ut0vzoCuidvyMf8arZpMpJ6ZRDw\""
						},
						{
							"key": "Via",
							"value": "1.1 vegur"
						},
						{
							"key": "Cache-Control",
							"value": "max-age=14400"
						},
						{
							"key": "CF-Cache-Status",
							"value": "HIT"
						},
						{
							"key": "Age",
							"value": "673"
						},
						{
							"key": "Report-To",
							"value": "{\"endpoints\":[{\"url\":\"https:\\/\\/a.nel.cloudflare.com\\/report\\/v3?s=e0Y9EhIBGrBHdJTAYTbh24d4S0chTNelRAfF8ip4SSCCs28c4LYEIMjKE8EeCyMja7ZR7na4mmoP7wqGgaJO9vyl62C8kW3swJPbUiqVxoqWb8tr1XtZkMj9Vg%3D%3D\"}],\"group\":\"cf-nel\",\"max_age\":604800}"
						},
						{
							"key": "NEL",
							"value": "{\"success_fraction\":0,\"report_to\":\"cf-nel\",\"max_age\":604800}"
						},
						{
							"key": "Vary",
							"value": "Accept-Encoding"
						},
						{
							"key": "Server",
							"value": "cloudflare"
						},
						{
							"key": "CF-RAY",
							"value": "7717ea5968da6c65-SIN"
						},
						{
							"key": "Content-Encoding",
							"value": "br"
						}
					],
					"cookie": [],
					"body": "{\n    \"page\": 2,\n    \"per_page\": 6,\n    \"total\": 12,\n    \"total_pages\": 2,\n    \"data\": [\n        {\n            \"id\": 7,\n            \"email\": \"michael.lawson@reqres.in\",\n            \"first_name\": \"Michael\",\n            \"last_name\": \"Lawson\",\n            \"avatar\": \"https://reqres.in/img/faces/7-image.jpg\"\n        },\n        {\n            \"id\": 8,\n            \"email\": \"lindsay.ferguson@reqres.in\",\n            \"first_name\": \"Lindsay\",\n            \"last_name\": \"Ferguson\",\n            \"avatar\": \"https://reqres.in/img/faces/8-image.jpg\"\n        },\n        {\n            \"id\": 9,\n            \"email\": \"tobias.funke@reqres.in\",\n            \"first_name\": \"Tobias\",\n            \"last_name\": \"Funke\",\n            \"avatar\": \"https://reqres.in/img/faces/9-image.jpg\"\n        },\n        {\n            \"id\": 10,\n            \"email\": \"byron.fields@reqres.in\",\n            \"first_name\": \"Byron\",\n            \"last_name\": \"Fields\",\n            \"avatar\": \"https://reqres.in/img/faces/10-image.jpg\"\n        },\n        {\n            \"id\": 11,\n            \"email\": \"george.edwards@reqres.in\",\n            \"first_name\": \"George\",\n            \"last_name\": \"Edwards\",\n            \"avatar\": \"https://reqres.in/img/faces/11-image.jpg\"\n        },\n        {\n            \"id\": 12,\n            \"email\": \"rachel.howell@reqres.in\",\n            \"first_name\": \"Rachel\",\n            \"last_name\": \"Howell\",\n            \"avatar\": \"https://reqres.in/img/faces/12-image.jpg\"\n        }\n    ],\n    \"support\": {\n        \"url\": \"https://reqres.in/#support-heading\",\n        \"text\": \"To keep ReqRes free, contributions towards server costs are appreciated!\"\n    }\n}"
				}
			]
		},
		{
			"name": "Single User Get Request",
			"event": [
				{
					"listen": "test",
					"script": {
						"exec": [
							"// Validating Firstname and Lastname\r",
							"//tests[\"Validating Response Body\"] = responseBody.has(\"Janet\");\r",
							"//tests[\"Weaver is present in Last Name\"] = responseBody.has(\"Weaver\");\r",
							"\r",
							"// 2nd Way\r",
							"var response = JSON.parse(responseBody);\r",
							"tests[\"Validating Response Body\"] = response.data.first_name == \"Janet\";\r",
							"tests[\"Weaver is present in Last Name\"]= response.data.last_name == \"Weaver\";"
						],
						"type": "text/javascript"
					}
				}
			],
			"request": {
				"method": "GET",
				"header": [],
				"url": {
					"raw": "https://reqres.in/api/users/2",
					"protocol": "https",
					"host": [
						"reqres",
						"in"
					],
					"path": [
						"api",
						"users",
						"2"
					]
				}
			},
			"response": []
		},
		{
			"name": "Multiple User Post Requests",
			"event": [
				{
					"listen": "test",
					"script": {
						"exec": [
							"var s = JSON.parse(responseBody);\r",
							"\r",
							"tests[\"Validating Name\"] = s.name == \"Usman\";\r",
							"tests[\"Validating Job\"] = s.job == \"SQA\";\r",
							"tests[\"Validating Status Code\"] = responseCode.code == 201;\r",
							""
						],
						"type": "text/javascript"
					}
				}
			],
			"request": {
				"method": "POST",
				"header": [],
				"body": {
					"mode": "raw",
					"raw": "// Request Payload\r\n{\r\n    \"name\": \"Usman\",\r\n    \"job\" : \"SQA\" \r\n}",
					"options": {
						"raw": {
							"language": "json"
						}
					}
				},
				"url": {
					"raw": "https://reqres.in/api/users",
					"protocol": "https",
					"host": [
						"reqres",
						"in"
					],
					"path": [
						"api",
						"users"
					]
				}
			},
			"response": []
		},
		{
			"name": "Login Post Request",
			"event": [
				{
					"listen": "test",
					"script": {
						"exec": [
							"tests[\"Validating TOKEN CHECK\"] = responseBody.has(\"token\")\r",
							"tests[\"Validating TOKEN CHECK Value\"] = responseBody.has(\"QpwL5tke4Pnpja7X3\")"
						],
						"type": "text/javascript"
					}
				}
			],
			"request": {
				"method": "POST",
				"header": [],
				"body": {
					"mode": "raw",
					"raw": "{\r\n    \"email\" : \"emma.wong@reqres.in\",\r\n    \"password\" : \"cityslicka\"\r\n}\r\n/*\r\n{\r\n    \"email\" : \"peter@klaven\"\r\n    \"password\" : \"cityslicka\"\r\n}\r\n*/",
					"options": {
						"raw": {
							"language": "json"
						}
					}
				},
				"url": {
					"raw": "https://reqres.in/api/login",
					"protocol": "https",
					"host": [
						"reqres",
						"in"
					],
					"path": [
						"api",
						"login"
					]
				}
			},
			"response": []
		},
		{
			"name": "Login Post Request Negative testing",
			"request": {
				"method": "POST",
				"header": [],
				"body": {
					"mode": "raw",
					"raw": "{\r\n    \"email\" : \"emma.wong@reqres.in\"\r\n}",
					"options": {
						"raw": {
							"language": "json"
						}
					}
				},
				"url": {
					"raw": "https://reqres.in/api/login",
					"protocol": "https",
					"host": [
						"reqres",
						"in"
					],
					"path": [
						"api",
						"login"
					]
				}
			},
			"response": []
		},
		{
			"name": "Employee Multiple Get Request",
			"event": [
				{
					"listen": "test",
					"script": {
						"exec": [
							"var r = JSON.parse(responseBody);\r",
							"tests[\"Validating Name\"] = r.data[4].employee_name == \"Airi Satou\";"
						],
						"type": "text/javascript"
					}
				}
			],
			"request": {
				"method": "GET",
				"header": [],
				"url": {
					"raw": "https://dummy.restapiexample.com/api/v1/employees",
					"protocol": "https",
					"host": [
						"dummy",
						"restapiexample",
						"com"
					],
					"path": [
						"api",
						"v1",
						"employees"
					]
				}
			},
			"response": []
		},
		{
			"name": "Employee Single Get Request",
			"request": {
				"method": "GET",
				"header": [],
				"url": {
					"raw": "https://dummy.restapiexample.com/api/v1/employee/21",
					"protocol": "https",
					"host": [
						"dummy",
						"restapiexample",
						"com"
					],
					"path": [
						"api",
						"v1",
						"employee",
						"21"
					]
				}
			},
			"response": []
		},
		{
			"name": "Employee Post Request",
			"event": [
				{
					"listen": "test",
					"script": {
						"exec": [
							""
						],
						"type": "text/javascript"
					}
				}
			],
			"request": {
				"method": "POST",
				"header": [],
				"body": {
					"mode": "raw",
					"raw": "{\r\n    \"name\" : \"test\",\r\n     \"salary\" : \"123\",\r\n     \"age\" : \"23\"\r\n}",
					"options": {
						"raw": {
							"language": "json"
						}
					}
				},
				"url": {
					"raw": "https://dummy.restapiexample.com/api/v1/create",
					"protocol": "https",
					"host": [
						"dummy",
						"restapiexample",
						"com"
					],
					"path": [
						"api",
						"v1",
						"create"
					]
				}
			},
			"response": []
		},
		{
			"name": "Employee Put Request",
			"request": {
				"method": "PUT",
				"header": [],
				"body": {
					"mode": "raw",
					"raw": "{\r\n    \"name\" : \"Usman\",\r\n     \"salary\" : \"12223\",\r\n     \"age\" : \"24\"\r\n}",
					"options": {
						"raw": {
							"language": "json"
						}
					}
				},
				"url": {
					"raw": "https://dummy.restapiexample.com/api/v1/update/21",
					"protocol": "https",
					"host": [
						"dummy",
						"restapiexample",
						"com"
					],
					"path": [
						"api",
						"v1",
						"update",
						"21"
					]
				}
			},
			"response": []
		},
		{
			"name": "Employee Delete Request",
			"request": {
				"method": "DELETE",
				"header": [],
				"url": {
					"raw": "https://dummy.restapiexample.com/api/v1/delete/21",
					"protocol": "https",
					"host": [
						"dummy",
						"restapiexample",
						"com"
					],
					"path": [
						"api",
						"v1",
						"delete",
						"21"
					]
				}
			},
			"response": []
		},
		{
			"name": "Employee API Record Not Found",
			"request": {
				"method": "GET",
				"header": [],
				"url": {
					"raw": "https://dummy.restapiexample.com/api/v1/employees/700",
					"protocol": "https",
					"host": [
						"dummy",
						"restapiexample",
						"com"
					],
					"path": [
						"api",
						"v1",
						"employees",
						"700"
					]
				}
			},
			"response": []
		}
	]
}